{
	"info": {
		"_postman_id": "4043ab6c-e41e-4b31-8883-9ab9433ca15b",
		"name": "ConexiaCollection",
		"schema": "https://schema.getpostman.com/json/collection/v2.1.0/collection.json"
	},
	"item": [
		{
			"name": "Create Clients",
			"request": {
				"method": "POST",
				"header": [
					{
						"key": "Content-Type",
						"value": "application/json",
						"type": "text"
					}
				],
				"body": {
					"mode": "raw",
					"raw": "{\n\t\"first_name\" : \"pepito\",\n\t\"last_name1\" : \"perez\",\n\t\"last_name2\" : \"gomez\",\n\t\"observations\" : \"le gusta la carne\"\n}"
				},
				"url": {
					"raw": "localhost:8080/clients/create",
					"host": [
						"localhost"
					],
					"port": "8080",
					"path": [
						"clients",
						"create"
					]
				}
			},
			"response": []
		},
		{
			"name": "Get Clients",
			"protocolProfileBehavior": {
				"disableBodyPruning": true
			},
			"request": {
				"method": "GET",
				"header": [
					{
						"key": "Content-Type",
						"value": "application/json",
						"type": "text",
						"disabled": true
					}
				],
				"body": {
					"mode": "raw",
					"raw": ""
				},
				"url": {
					"raw": "localhost:8080/clients/1",
					"host": [
						"localhost"
					],
					"port": "8080",
					"path": [
						"clients",
						"1"
					]
				}
			},
			"response": []
		},
		{
			"name": "Create Chefs",
			"request": {
				"method": "POST",
				"header": [
					{
						"key": "Content-Type",
						"value": "application/json",
						"type": "text"
					}
				],
				"body": {
					"mode": "raw",
					"raw": "{\n\t\"first_name\" : \"pepito\",\n\t\"last_name1\" : \"perez\",\n\t\"last_name2\" : \"gomez\"\n}"
				},
				"url": {
					"raw": "localhost:8080/chefs/create",
					"host": [
						"localhost"
					],
					"port": "8080",
					"path": [
						"chefs",
						"create"
					]
				}
			},
			"response": []
		},
		{
			"name": "Get Chefs",
			"protocolProfileBehavior": {
				"disableBodyPruning": true
			},
			"request": {
				"method": "GET",
				"header": [
					{
						"key": "Content-Type",
						"value": "application/json",
						"type": "text",
						"disabled": true
					}
				],
				"body": {
					"mode": "raw",
					"raw": ""
				},
				"url": {
					"raw": "localhost:8080/chefs/1",
					"host": [
						"localhost"
					],
					"port": "8080",
					"path": [
						"chefs",
						"1"
					]
				}
			},
			"response": []
		},
		{
			"name": "Create Tables",
			"request": {
				"method": "POST",
				"header": [
					{
						"key": "Content-Type",
						"value": "application/json",
						"type": "text"
					}
				],
				"body": {
					"mode": "raw",
					"raw": "{\n\t\"max_num\" : \"8\",\n\t\"location\" : \"jardin\"\n}"
				},
				"url": {
					"raw": "localhost:8080/tables/create",
					"host": [
						"localhost"
					],
					"port": "8080",
					"path": [
						"tables",
						"create"
					]
				}
			},
			"response": []
		},
		{
			"name": "Get Tables",
			"protocolProfileBehavior": {
				"disableBodyPruning": true
			},
			"request": {
				"method": "GET",
				"header": [
					{
						"key": "Content-Type",
						"value": "application/json",
						"type": "text",
						"disabled": true
					}
				],
				"body": {
					"mode": "raw",
					"raw": ""
				},
				"url": {
					"raw": "localhost:8080/tables/1",
					"host": [
						"localhost"
					],
					"port": "8080",
					"path": [
						"tables",
						"1"
					]
				}
			},
			"response": []
		},
		{
			"name": "Create Waiters",
			"request": {
				"method": "POST",
				"header": [
					{
						"key": "Content-Type",
						"value": "application/json",
						"type": "text"
					}
				],
				"body": {
					"mode": "raw",
					"raw": "{\n\t\"first_name\" : \"pepito\",\n\t\"last_name1\" : \"perez\",\n\t\"last_name2\" : \"gomez\"\n}"
				},
				"url": {
					"raw": "localhost:8080/waiters/create",
					"host": [
						"localhost"
					],
					"port": "8080",
					"path": [
						"waiters",
						"create"
					]
				}
			},
			"response": []
		},
		{
			"name": "Get Waiters",
			"protocolProfileBehavior": {
				"disableBodyPruning": true
			},
			"request": {
				"method": "GET",
				"header": [
					{
						"key": "Content-Type",
						"value": "application/json",
						"type": "text",
						"disabled": true
					}
				],
				"body": {
					"mode": "raw",
					"raw": ""
				},
				"url": {
					"raw": "localhost:8080/waiters/1",
					"host": [
						"localhost"
					],
					"port": "8080",
					"path": [
						"waiters",
						"1"
					]
				}
			},
			"response": []
		},
		{
			"name": "Create Invoices",
			"request": {
				"method": "POST",
				"header": [
					{
						"key": "Content-Type",
						"value": "application/json",
						"type": "text"
					}
				],
				"body": {
					"mode": "raw",
					"raw": "{\n\t\"id_client\" : \"1\",\n\t\"id_waiter\" : \"1\",\n\t\"id_table\" : \"1\"\n}"
				},
				"url": {
					"raw": "localhost:8080/invoices/create",
					"host": [
						"localhost"
					],
					"port": "8080",
					"path": [
						"invoices",
						"create"
					]
				}
			},
			"response": []
		},
		{
			"name": "Get Invoices",
			"request": {
				"method": "GET",
				"header": [],
				"body": {
					"mode": "raw",
					"raw": ""
				},
				"url": {
					"raw": "localhost:8080/invoices/1",
					"host": [
						"localhost"
					],
					"port": "8080",
					"path": [
						"invoices",
						"1"
					]
				}
			},
			"response": []
		},
		{
			"name": "Create Details",
			"request": {
				"method": "POST",
				"header": [
					{
						"key": "Content-Type",
						"value": "application/json",
						"type": "text"
					}
				],
				"body": {
					"mode": "raw",
					"raw": "{\n\t\"id_invoice\" : \"1\",\n\t\"id_chef\" : \"1\",\n\t\"dish\" : \"pescado\",\n\t\"cost\" : \"1000\"\n}"
				},
				"url": {
					"raw": "localhost:8080/details/create",
					"host": [
						"localhost"
					],
					"port": "8080",
					"path": [
						"details",
						"create"
					]
				}
			},
			"response": []
		},
		{
			"name": "Get Details",
			"request": {
				"method": "GET",
				"header": [],
				"body": {
					"mode": "raw",
					"raw": ""
				},
				"url": {
					"raw": "localhost:8080/details/1",
					"host": [
						"localhost"
					],
					"port": "8080",
					"path": [
						"details",
						"1"
					]
				}
			},
			"response": []
		},
		{
			"name": "Waiters Report",
			"request": {
				"method": "GET",
				"header": [],
				"body": {
					"mode": "raw",
					"raw": ""
				},
				"url": {
					"raw": "localhost:8080/reports/waiters/3",
					"host": [
						"localhost"
					],
					"port": "8080",
					"path": [
						"reports",
						"waiters",
						"3"
					]
				}
			},
			"response": []
		},
		{
			"name": "ClientsReport",
			"request": {
				"method": "GET",
				"header": [],
				"body": {
					"mode": "raw",
					"raw": ""
				},
				"url": {
					"raw": "localhost:8080/reports/clients/2000",
					"host": [
						"localhost"
					],
					"port": "8080",
					"path": [
						"reports",
						"clients",
						"2000"
					]
				}
			},
			"response": []
		}
	]
}